<?xml version="1.0" encoding="utf-8"?>
<!-- Generator: Adobe Illustrator 19.1.0, SVG Export Plug-In . SVG Version: 6.00 Build 0)  -->
<!DOCTYPE svg PUBLIC "-//W3C//DTD SVG 1.1//EN" "http://www.w3.org/Graphics/SVG/1.1/DTD/svg11.dtd">
<svg version="1.1" id="Layer_1" xmlns="http://www.w3.org/2000/svg" xmlns:xlink="http://www.w3.org/1999/xlink" x="0px" y="0px"
	 viewBox="0 0 1024 1024" style="enable-background:new 0 0 1024 1024;" xml:space="preserve">
<path d="M832,272c0,8.8-7.2,16-16,16H208c-8.8,0-16-7.2-16-16l0,0c0-8.8,7.2-16,16-16h608C824.8,256,832,263.2,832,272L832,272z"/>
<path d="M832,432c0,8.8-7.2,16-16,16H208c-8.8,0-16-7.2-16-16l0,0c0-8.8,7.2-16,16-16h608C824.8,416,832,423.2,832,432L832,432z"/>
<path d="M832,592c0,8.8-7.2,16-16,16H208c-8.8,0-16-7.2-16-16l0,0c0-8.8,7.2-16,16-16h608C824.8,576,832,583.2,832,592L832,592z"/>
<path d="M832,752c0,8.8-7.2,16-16,16H208c-8.8,0-16-7.2-16-16l0,0c0-8.8,7.2-16,16-16h608C824.8,736,832,743.2,832,752L832,752z"/>
</svg>
